<?xml version="1.0" encoding="UTF-8" standalone="no"?>
<svg
   xmlns:dc="http://purl.org/dc/elements/1.1/"
   xmlns:cc="http://creativecommons.org/ns#"
   xmlns:rdf="http://www.w3.org/1999/02/22-rdf-syntax-ns#"
   xmlns:svg="http://www.w3.org/2000/svg"
   xmlns="http://www.w3.org/2000/svg"
   xmlns:sodipodi="http://sodipodi.sourceforge.net/DTD/sodipodi-0.dtd"
   xmlns:inkscape="http://www.inkscape.org/namespaces/inkscape"
   width="14.99364"
   height="14.99364"
   viewBox="0 0 14.99364 14.99364"
   version="1.1"
   id="svg3759"
   sodipodi:docname="clock2.svg"
   inkscape:version="0.92.2 5c3e80d, 2017-08-06"
   inkscape:export-filename="/Users/mark/projects/octicons-6.0.1/build/svg/clock2.png"
   inkscape:export-xdpi="1639.095"
   inkscape:export-ydpi="1639.095">
  <metadata
     id="metadata3765">
    <rdf:RDF>
      <cc:Work
         rdf:about="">
        <dc:format>image/svg+xml</dc:format>
        <dc:type
           rdf:resource="http://purl.org/dc/dcmitype/StillImage" />
        <dc:title></dc:title>
      </cc:Work>
    </rdf:RDF>
  </metadata>
  <defs
     id="defs3763" />
  <sodipodi:namedview
     pagecolor="#ffffff"
     bordercolor="#666666"
     borderopacity="1"
     objecttolerance="10"
     gridtolerance="10"
     guidetolerance="10"
     inkscape:pageopacity="0"
     inkscape:pageshadow="2"
     inkscape:window-width="1834"
     inkscape:window-height="1016"
     id="namedview3761"
     showgrid="false"
     inkscape:zoom="56.125"
     inkscape:cx="6.4326498"
     inkscape:cy="7.5403957"
     inkscape:window-x="69"
     inkscape:window-y="0"
     inkscape:window-maximized="0"
     inkscape:current-layer="svg3759"
     fit-margin-top="0"
     fit-margin-left="0"
     fit-margin-right="0"
     fit-margin-bottom="0" />
  <g
     id="g4158"
     transform="translate(0,-0.49888641)">
    <path
       sodipodi:nodetypes="cccsscccssccssssss"
       style="fill-rule:evenodd"
       inkscape:connector-curvature="0"
       id="path3757"
       d="m 7.6971047,7.9045531 h 3.0000003 v 2 H 6.6971047 c -0.55,0 -1,-0.45 -1,-1 v -5 h 2 z M 7,2.29364 c 3.14,0 5.7,2.56 5.7,5.7 0,3.14 -2.56,5.7 -5.7,5.7 -3.1457403,-0.0055 -5.6944956,-2.55426 -5.7,-5.7 0,-3.14 2.56,-5.7 5.7,-5.7 z m 0,-1.3 c -3.86,0 -7,3.14 -7,7 0,3.86 3.14,7 7,7 3.86,0 7,-3.14 7,-7 0,-3.86 -3.14,-7 -7,-7 z" />
    <path
       d="m 9.4936413,3.5085184 -1.000001,1 2.5000007,2.5 4,-4.5 -1,-1 -3,3.5 z"
       id="path3806"
       inkscape:connector-curvature="0"
       style="fill-rule:evenodd"
       sodipodi:nodetypes="ccccccc" />
    <path
       inkscape:connector-curvature="0"
       id="path4001"
       d="M 6.5609349,14.971123 C 5.3070234,14.894751 4.0389844,14.451959 3.0152778,13.732998 1.3996294,12.598309 0.35008216,10.892191 0.07505608,8.9534436 -0.02697743,8.2341766 -0.00654163,7.4088919 0.13117596,6.6870844 0.60121282,4.2235198 2.3809607,2.1803497 4.7613803,1.3715591 5.2192044,1.216005 5.6923082,1.1102663 6.2224048,1.0450201 c 0.3227435,-0.039724 1.1641448,-0.044898 1.4877505,-0.00915 1.034743,0.114312 2.0071167,0.4389918 2.8775057,0.9608117 0.509548,0.3054869 0.896594,0.6129987 1.376057,1.0932911 l 0.369375,0.3700145 0.832179,-0.9709713 0.83218,-0.9709712 0.49364,0.4934041 0.493641,0.493404 -0.932746,1.0488518 -0.932746,1.0488516 0.146605,0.2983879 c 0.368977,0.7509876 0.578058,1.4613784 0.683012,2.3206596 0.03952,0.323558 0.04479,1.1496266 0.0094,1.4699332 -0.135494,1.2254721 -0.555669,2.3503369 -1.237901,3.3140309 -1.418709,2.00401 -3.723906,3.11389 -6.1593941,2.965553 z M 7.665381,13.661194 c 0.4374822,-0.05111 0.9074658,-0.164313 1.3365338,-0.321927 0.2328187,-0.08552 0.8069413,-0.371144 1.0334072,-0.514109 2.257283,-1.424994 3.231544,-4.2183771 2.346513,-6.7278803 -0.09256,-0.2624435 -0.17284,-0.4467973 -0.191496,-0.4397326 -0.0073,0.00277 -0.279724,0.3046771 -0.605339,0.6708996 L 10.992971,6.9943041 9.7480345,5.7494626 8.5030979,4.5046213 8.9973967,4.0100859 9.4916955,3.5155505 10.243875,4.2675736 c 0.413698,0.4136129 0.755531,0.748366 0.759628,0.7438962 0.0041,-0.00447 0.1127,-0.1310147 0.24134,-0.2812107 L 11.478733,4.4571754 11.367273,4.322039 C 11.30597,4.2477139 11.158919,4.0895148 11.040494,3.9704853 9.6812734,2.6043306 7.7505512,2.0201993 5.856292,2.4020287 4.9878462,2.5770829 4.162387,2.9651045 3.4340657,3.5406388 3.2031706,3.7230967 2.7242528,4.2034298 2.535265,4.4420955 1.5436488,5.6943715 1.119627,7.2809433 1.3582611,8.8461183 1.4872008,9.6918199 1.7897085,10.46611 2.2689388,11.177062 c 1.1957135,1.773876 3.2766287,2.731779 5.3964422,2.484132 z"
       style="fill:#87aade;stroke-width:0.01781737" />
    <path
       inkscape:connector-curvature="0"
       id="path4003"
       d="M 6.4655219,9.8659888 C 6.2055657,9.8030598 5.9506368,9.6039622 5.8263004,9.3667617 5.6992489,9.1243813 5.7062568,9.2936631 5.7059644,6.4599129 L 5.705701,3.9075743 H 6.6945651 7.6834293 V 5.9120287 7.916483 H 9.1889972 10.694565 V 8.9053472 9.8942113 L 8.6322043,9.8927271 C 6.9171568,9.8914924 6.5522752,9.8869896 6.4655219,9.8659888 Z"
       style="fill:#87aade;stroke-width:0.01781737" />
  </g>
</svg>
